597563 91610 470
411672 230451 449
943381 26507 525
460834 157393 449
592805 730605 509
148784 502977 449
347610 889437 525
321568 983737 525
518358 102042 470
619804 513515 452
700800 275292 509
158415 489641 449
856859 713656 525
721357 676334 504
336679 146234 443
722514 454313 509
475016 551685 470
880056 898684 445
86588 471965 449
46649 899263 525
952214 90093 525
521921 525110 364
597052 109474 470
546101 256521 470
657769 446153 509
137731 191439 383
437282 485308 444
514438 812629 509
696163 737442 504
237173 843413 525
513914 644910 509
984239 230546 525
760671 151427 509
957855 170390 525
683514 471942 509
516827 280794 470
914564 362282 525
933690 504819 525
506546 466163 426
311013 189461 443
298733 722386 509
494059 967935 525
615412 909372 525
652985 300115 509
713702 777202 468
940994 881514 507
49243 983324 525
92392 238938 443
414985 549089 470
475034 964317 525
760973 226484 509
449110 742248 509
818155 473429 509
196614 332148 443
519076 872019 525
751465 43554 509
29856 751411 509
632761 476892 509
427287 192935 449
720167 908178 525
366603 66405 443
448078 19540 449
660690 127996 509
823922 621909 509
22905 557385 470
386905 596913 470
688215 793219 504
380702 754211 509
326555 814322 509
95669 27170 351
558960 461981 470
91395 64695 351
214159 539825 470
479407 407778 449
232767 837319 509
868647 973447 507
70947 774254 509
641797 594784 509
175892 60926 383
133286 362587 443
703979 404768 509
624692 240766 470
866588 504470 525
325870 708468 509
942248 486551 525
494225 435577 444
955365 773917 525
772828 92294 509
971762 580323 525
713723 426079 509
153237 495132 449
949138 912115 507
75622 600305 470
979332 158696 525
528422 884164 525
947760 704547 525
389836 443204 449
521926 37081 470
529164 384248 470
692169 59196 509
855147 53349 525
151998 734091 509
700625 776827 504
673867 701148 442
340879 999443 525
531650 179451 470
479085 411142 444
459438 87911 449
3122 765846 509
800493 924113 525
520739 627703 509
533064 812857 509
313987 342603 384
17650 699676 509
898169 934912 476
489214 516872 470
275070 953892 525
753505 161436 509
417501 544433 470
279680 838657 525
381674 29620 443
41648 395553 443
367603 884659 525
636224 452686 509
933355 885729 476
772411 388003 509
310834 142325 443
952467 215579 525
948868 784546 525
108145 767176 509
822360 348538 509
498873 114275 449
79897 959952 525
750305 198999 509
501186 866835 525
256412 630084 509
220803 329877 443
456008 333850 449
105473 103752 341
620762 554171 447
625892 436138 470
367082 212899 443
616008 932611 525
632250 290121 509
872384 647873 525
763270 324507 509
574743 403695 470
868988 495317 525
220223 247593 443
13431 624134 470
303229 947361 525
247186 508856 449
92338 381145 443
907214 563978 525
368476 924315 525
398741 678596 509
747007 170985 509
737110 726502 424
615421 461015 470
192745 957516 525
172642 62137 383
449215 569445 470
577644 398300 470
700155 211612 509
873799 245354 525
121397 641388 509
539163 289661 470
729994 772044 468
511371 322396 449
429649 538840 470
797852 558456 509
738826 285756 509
540808 905872 525
215853 359140 443
297880 195298 443
28348 25679 308
168027 305103 443
780554 892512 525
839303 676159 525
815146 635955 504
941630 195013 525
277187 88106 443
287563 559361 470
826321 670653 504
303756 809723 509
168605 748010 509
806348 703908 504
91180 702377 509
261685 319682 407
363588 976386 525
694141 394002 509
340049 956421 525
241972 347558 441
604256 952845 525
373010 376633 423
284859 490203 449
45866 366456 443
401937 487117 449
75568 843210 525
42599 536361 470
