740817 82400 509
905692 34967 525
806358 870554 525
817310 282452 509
833893 667117 504
507931 812735 509
505561 238838 449
704431 661270 442
980731 475881 525
5923 174474 383
373888 884578 525
573114 836786 509
272163 183804 443
428148 265041 449
496252 703521 509
232706 683891 509
319364 315967 353
909509 917133 476
815863 922980 525
524771 124150 470
750715 594876 509
47757 96454 351
828330 917080 525
464874 582951 470
479987 880926 525
827981 544983 509
598131 585777 403
429060 107543 449
155443 967371 525
878171 793316 525
946374 203508 525
25122 273514 443
925577 930382 476
472928 42240 449
932228 440139 525
437160 33150 449
702160 505851 509
897986 420757 525
326946 723778 509
589830 824365 509
462472 947311 525
530237 289472 470
37075 74884 340
829251 921236 525
232926 520705 470
126101 171863 383
910829 129394 525
40730 551843 470
769713 552601 509
173293 936738 525
266663 919713 525
676215 787363 504
702472 966207 525
662177 413671 509
561436 124592 470
198692 516731 470
764741 904096 525
38823 225318 386
848361 692297 525
3666 635180 509
24916 315997 443
130948 846912 525
108981 964951 525
166814 684316 509
817242 786104 468
946092 613103 525
782941 787877 375
202783 911753 525
993789 105492 525
449533 418396 418
578747 420962 470
296829 123048 443
866241 190898 525
411195 341988 449
493111 874880 525
554430 37716 470
125895 399062 443
740479 950640 525
125277 24506 354
702962 295200 509
257029 562825 470
936195 749758 525
815123 208238 509
432980 644890 509
470437 342876 449
32230 209940 383
325597 274173 389
2505 949520 525
939740 870355 507
274319 66422 443
587858 330459 470
323965 808627 509
918155 535386 525
696941 526356 509
245245 782879 509
454893 782255 509
914664 901659 476
229617 488529 449
294661 575703 470
849630 458972 525
255692 515398 470
546896 105553 470
156416 900109 525
925842 723019 525
217969 989404 525
969124 254203 525
401445 441121 449
243081 179489 443
194741 208215 373
205428 206019 329
308696 776548 509
788211 585173 509
955829 558043 525
774556 141725 509
879415 811108 525
877134 847104 432
412374 676471 509
832221 874655 525
71312 163850 383
961149 216003 525
856517 942825 507
723526 257763 509
281080 928861 525
66154 797632 509
935175 937586 414
900852 788066 525
866094 685512 525
660503 848560 525
543713 75783 470
304472 274839 389
288416 666490 509
770954 700980 504
516976 425787 470
534115 98228 470
405947 31655 443
35128 136635 354
503888 53388 449
577822 103622 470
354051 838643 525
199797 199404 329
91361 9549 351
730024 807634 468
184779 721567 509
65910 45128 340
572478 721097 509
373789 268564 441
787419 865489 525
896516 705321 525
77975 342928 443
925569 377722 525
217202 220447 355
268048 252714 407
80163 664548 509
574714 606376 434
974872 666716 525
393233 842657 525
821022 595599 509
185137 848260 525
341160 650053 509
202644 450720 449
207618 266760 443
980497 856083 507
941659 522323 525
434475 674116 509
133495 588322 470
344197 260264 407
70684 981897 525
351270 579880 470
559441 129210 470
959201 155271 525
417700 566822 470
704235 588094 509
196261 264630 443
319589 526664 470
929532 504931 525
294308 638518 509
959858 964660 414
501866 333175 449
735906 197712 509
314293 108358 443
319088 498897 449
990799 835837 525
312270 878520 525
488679 136641 449
799399 708591 468
867946 632759 525
223771 944371 525
671095 363407 509
840864 150031 525
717193 537260 509
918619 614152 525
188929 174702 365
798159 416406 509
762486 846678 525
555093 540721 452
585124 157339 470
843747 682837 525
71308 362650 443
382375 663199 509
619181 327521 470
747779 819979 468
957286 82065 525
603760 993209 525
835485 590624 509
470188 241714 449
545174 23401 470
496014 562489 470
115967 84525 354
368706 926157 525
382738 959037 525
340196 490436 449
393888 501166 449
256477 730225 509
616370 297520 470
972494 248043 525
677887 630009 442
876798 841945 432
848040 606243 525
469866 534916 470
847267 710469 525
552819 483087 470
172695 277912 443
805158 131970 509
22263 49208 324
994977 839999 507
820843 277609 509
994595 956259 458
800940 894794 525
943436 666947 525
477422 261210 449
797429 85990 509
347656 370049 410
37728 551247 470
591277 76425 470
116921 59909 354
28020 918405 525
222937 138056 386
815820 233527 509
622367 495141 470
250180 745178 509
528936 320417 470
962499 362282 525
662480 847308 525
49024 302392 443
135570 794272 509
158380 109406 383
327748 748779 509
949717 493040 525
427677 729019 509
317594 391336 441
326099 996184 525
971876 213015 525
349046 177584 443
23665 37382 324
766248 712463 424
238714 162271 443
805093 833297 450
33995 416982 449
853176 826945 525
727475 550952 509
957838 545572 525
678457 874754 525
768851 381790 509
175192 507279 449
698909 732185 504
760021 337271 509
875201 938473 476
908056 584081 525
517315 775005 509
741231 554242 509
796931 895247 525
415818 262403 449
486301 705887 509
127007 674750 509
428149 921351 525
786409 375949 509
346245 196520 443
181402 98969 383
757829 574022 509
516159 454664 470
583911 398604 470
258632 352364 441
854191 791538 525
588589 671997 509
662071 389544 509
199546 693895 509
741101 471936 509
719218 40007 509
965940 372830 525
20069 24410 282
184124 123516 383
468737 281445 449
451291 907344 525
396938 66911 443
389248 23836 443
338733 421048 449
814534 376326 509
7420 645907 509
373538 121662 443
656459 819109 504
