47873 954724 525
553200 42577 470
31891 550289 470
368621 609094 470
323040 211351 443
336082 544215 470
647186 274306 509
221940 990209 525
608330 3321 470
573642 738017 509
944443 222573 525
591352 208839 470
499195 587024 470
445474 537876 470
932420 595002 525
913795 988587 507
103875 65924 351
284423 624116 470
725547 106064 509
686413 600477 509
49287 335273 443
126506 781189 509
948805 256153 525
241028 437709 449
957213 298431 525
767988 646483 504
785724 224281 509
557777 920911 525
434419 518950 470
896555 146862 525
998878 918248 507
17426 781302 509
896763 324144 525
530215 66467 470
291881 667750 509
124551 285326 443
511942 251097 470
329434 581053 470
687337 357362 509
325253 403833 441
510888 196726 449
240295 293044 407
760595 487133 509
861539 826714 525
777593 914927 525
693308 790485 504
832001 920735 525
346462 694499 509
992319 701840 525
689002 710188 504
694537 88379 509
124163 394101 443
768783 278504 509
360361 977239 525
469708 617628 470
131432 759085 509
657202 848103 525
232866 578599 470
291215 313276 384
530010 973583 525
463606 273129 449
843867 332929 525
53409 387690 443
977851 141948 525
650217 124930 509
627886 166341 509
998035 774661 525
349593 492512 449
857940 369112 525
473715 948462 525
24884 421862 449
876387 951220 507
227731 266987 443
618859 388887 470
181703 862282 525
414825 906862 525
146502 623903 470
910126 695101 525
100889 722684 509
810483 221509 509
248769 766698 509
594871 705187 509
17739 153088 375
599219 295880 470
230754 41341 443
587774 815078 509
670016 355761 509
294301 85321 443
194246 823060 509
946679 459197 525
493482 632880 509
800582 879237 525
648017 122868 509
115799 732222 509
419946 386377 449
763612 752150 424
883540 919625 476
301680 844528 525
592043 848708 525
892549 735671 525
111075 252883 443
112005 649713 509
558574 254988 470
602281 642710 509
365775 773140 509
225605 388456 443
841247 83739 525
92703 756217 509
820290 776902 468
811710 28078 509
524100 706666 509
996684 883957 507
711203 398777 509
548389 602998 434
307088 835788 509
741466 142661 509
897951 538720 525
305048 480316 449
831537 56125 509
591738 80582 470
211723 251685 443
175368 693239 509
742668 14540 509
449735 858110 525
796802 158287 509
438472 577153 470
34180 340553 443
628722 381744 509
576346 26212 470
52384 778907 509
223265 836264 509
906525 243690 525
396552 234176 441
183730 65566 383
139809 834479 509
121493 229084 386
225802 99527 386
658104 277353 509
967826 243854 525
548792 897178 525
703096 254153 509
704092 999727 525
639224 179537 509
133451 23195 354
868406 942662 507
180752 302586 443
479841 675757 509
370806 97759 443
937147 149814 525
337950 368252 441
856350 449316 525
852648 768800 525
147543 492797 449
596336 239780 470
535617 337623 470
925869 79347 525
118188 415691 449
730663 830636 468
971252 534784 525
338059 939181 525
640948 52088 509
345246 830572 509
558542 996002 525
246936 924376 525
228891 328297 443
880564 121350 525
131882 663392 509
203342 831266 509
553457 341677 470
892826 921127 476
542644 583616 452
535515 374956 470
986047 392803 525
313633 554347 470
693039 554425 509
290405 738775 509
613235 489386 470
187306 877131 525
167887 644381 509
883820 74545 525
239132 275175 407
991705 852262 507
108623 858639 525
552021 913032 525
441194 603824 470
17594 692228 509
234841 931516 525
780039 50591 509
413683 464535 444
997868 529444 525
27875 638642 509
971252 461717 525
192633 994960 525
85268 322721 443
137285 991631 525
867699 566272 525
554697 963601 525
932122 472925 525
26607 598004 470
418301 522194 470
